^F:\VISUALSTUDIOPROJECTS\CYCLESANDCONDITIONS\CYCLESANDCONDITIONS.CPP
F:\VISUALSTUDIOPROJECTS\CYCLESANDCONDITIONS\DEBUG\VC142.PDB
F:\VISUALSTUDIOPROJECTS\CYCLESANDCONDITIONS\DEBUG\VC142.IDB
F:\VISUALSTUDIOPROJECTS\CYCLESANDCONDITIONS\DEBUG\CYCLESANDCONDITIONS.OBJ
