^F:\VISUALSTUDIOPROJECTS\MODULES\CONSOLEAPPLICATION1\MODULES.CPP
F:\VISUALSTUDIOPROJECTS\MODULES\CONSOLEAPPLICATION1\DEBUG\VC142.PDB
F:\VISUALSTUDIOPROJECTS\MODULES\CONSOLEAPPLICATION1\DEBUG\VC142.IDB
F:\VISUALSTUDIOPROJECTS\MODULES\CONSOLEAPPLICATION1\DEBUG\MODULES.OBJ
